<?xml version="1.0" encoding="utf-8"?>
<!-- Generator: Adobe Illustrator 20.1.0, SVG Export Plug-In . SVG Version: 6.00 Build 0)  -->
<svg version="1.1" id="Layer_1" xmlns="http://www.w3.org/2000/svg" xmlns:xlink="http://www.w3.org/1999/xlink" x="0px" y="0px"
	 viewBox="0 0 64 64" style="enable-background:new 0 0 64 64;" xml:space="preserve">
<style type="text/css">
	.st0{fill:url(#SVGID_1_);}
	.st1{fill:#FFFFFF;}
</style>
<g>
	<linearGradient id="SVGID_1_" gradientUnits="userSpaceOnUse" x1="-1.9492" y1="-9.8202" x2="61.8511" y2="68.4802">
		<stop  offset="0" style="stop-color:#95CD22"/>
		<stop  offset="1" style="stop-color:#67A123"/>
	</linearGradient>
	<circle class="st0" cx="32" cy="31.8" r="31.8"/>
	<path class="st1" d="M31,30.7v16.3c0,1.1,0.9,1.9,2,1.9c1.1,0,2-0.9,2-1.9V30.7c2.6-0.9,4.3-3.3,4.3-5.9s-1.8-5.1-4.3-5.9v-3.2
		c0-1.1-0.9-1.9-2-1.9c-1.1,0-2,0.9-2,1.9v3.2c-2.6,0.9-4.3,3.3-4.3,5.9C26.7,27.5,28.4,29.9,31,30.7z M30.6,24.8
		c0-1.3,1-2.3,2.3-2.3c1.3,0,2.3,1,2.3,2.3c0,1.3-1,2.3-2.3,2.3C31.6,27.1,30.6,26.1,30.6,24.8z"/>
	<path class="st1" d="M12.5,24.9c0,2.7,1.8,5.1,4.3,5.9v16.2c0,1.1,0.9,1.9,2,1.9s2-0.9,2-1.9V30.8c2.6-0.9,4.3-3.3,4.3-5.9
		s-1.8-5.1-4.3-5.9v-3.3c0-1.1-0.9-1.9-2-1.9s-2,0.9-2,1.9V19C14.3,19.9,12.5,22.3,12.5,24.9z M18.8,22.6c1.3,0,2.3,1,2.3,2.3
		c0,1.3-1,2.3-2.3,2.3s-2.3-1-2.3-2.3C16.5,23.7,17.6,22.6,18.8,22.6z"/>
	<path class="st1" d="M51.4,37.8c0-2.7-1.8-5.1-4.3-5.9V15.7c0-1.1-0.9-1.9-2-1.9c-1.1,0-2,0.9-2,1.9v16.2c-2.6,0.9-4.3,3.3-4.3,5.9
		s1.8,5.1,4.3,5.9v3.3c0,1.1,0.9,1.9,2,1.9c1.1,0,2-0.9,2-1.9v-3.3C49.7,42.9,51.4,40.5,51.4,37.8z M45.1,40.2c-1.3,0-2.3-1-2.3-2.3
		s1-2.3,2.3-2.3c1.3,0,2.3,1,2.3,2.3C47.5,39.2,46.4,40.2,45.1,40.2z"/>
</g>
</svg>
